Property Type, Suburb, Beds, Baths, Carparks, Price, Results
All Property Types,OAKLEIGH,Any,Any,Any,740000,RESULT DOESN'T CONTAIN EXPECTED VALUE! Expected: OAKLEIGH Actual: 95 Warrigal Road HUGHESDALE
expected,OAKLEIGH,actual,95 Warrigal Road HUGHESDALE,RESULT DOESN'T CONTAIN EXPECTED VALUE! Expected: OAKLEIGH Actual: 95 Warrigal Road HUGHESDALE
expected,OAKLEIGH,actual,95 Warrigal Road HUGHESDALE,RESULT DOESN'T CONTAIN EXPECTED VALUE! Expected: OAKLEIGH Actual: 95 Warrigal Road HUGHESDALE
expected,OAKLEIGH,actual,95 Warrigal Road HUGHESDALE,RESULT DOESN'T CONTAIN EXPECTED VALUE! Expected: OAKLEIGH Actual: 95 Warrigal Road HUGHESDALE
expected,OAKLEIGH,actual,95 Warrigal Road HUGHESDALE,RESULT DOESN'T CONTAIN EXPECTED VALUE! Expected: OAKLEIGH Actual: 95 Warrigal Road HUGHESDALE
All Property Types,OAKLEIGH,Any,Any,Any,0,RESULT DOESN'T CONTAIN EXPECTED VALUE! Expected: OAKLEIGH Actual: 95 Warrigal Road HUGHESDALE
expected,OAKLEIGH,actual,95 Warrigal Road HUGHESDALE,RESULT DOESN'T CONTAIN EXPECTED VALUE! Expected: OAKLEIGH Actual: 95 Warrigal Road HUGHESDALE
expected,OAKLEIGH,actual,95 Warrigal Road HUGHESDALE,RESULT DOESN'T CONTAIN EXPECTED VALUE! Expected: OAKLEIGH Actual: 95 Warrigal Road HUGHESDALE
expected,OAKLEIGH,actual,95 Warrigal Road HUGHESDALE,RESULT DOESN'T CONTAIN EXPECTED VALUE! Expected: OAKLEIGH Actual: 95 Warrigal Road HUGHESDALE
expected,OAKLEIGH,actual,95 Warrigal Road HUGHESDALE,RESULT DOESN'T CONTAIN EXPECTED VALUE! Expected: OAKLEIGH Actual: 95 Warrigal Road HUGHESDALE
Townhouse,DOCKLANDS,Any,Any,1,1650000,PASS -- No Results to check
Townhouse,DOCKLANDS,Any,Any,1,0,PASS -- No Results to check
